[{ 
 	"name":"bluemind/postgres-tests"
 	    },{
    "name":"bluemind/imap-role"
            },{
    "name":"bluemind/smtp-role"
        },{ 
    "name":"bluemind/elasticsearch-tests" 
		},{
    "name":"bluemind/node-tests"
}]
